<svg width="55" height="48" viewBox="0 0 55 48" fill="none" xmlns="http://www.w3.org/2000/svg">
<path opacity="0.7" d="M28.3535 22.4043V27.7158C28.3535 29.9033 28.1074 31.7969 27.6152 33.3965C27.1367 34.9961 26.4395 36.3154 25.5234 37.3545C24.6211 38.3936 23.541 39.166 22.2832 39.6719C21.0391 40.1641 19.6582 40.4102 18.1406 40.4102C16.9238 40.4102 15.7891 40.2529 14.7363 39.9385C13.6836 39.624 12.7334 39.1387 11.8857 38.4824C11.0518 37.8125 10.334 36.9785 9.73242 35.9805C9.13086 34.9824 8.66602 33.793 8.33789 32.4121C8.02344 31.0312 7.86621 29.4658 7.86621 27.7158V22.4043C7.86621 20.1895 8.10547 18.2891 8.58398 16.7031C9.07617 15.1172 9.78027 13.8047 10.6963 12.7656C11.6123 11.7266 12.6924 10.9609 13.9365 10.4688C15.1943 9.97656 16.582 9.73047 18.0996 9.73047C19.3164 9.73047 20.4443 9.8877 21.4834 10.2021C22.5361 10.5166 23.4863 11.002 24.334 11.6582C25.1816 12.3145 25.8994 13.1416 26.4873 14.1396C27.0889 15.1377 27.5469 16.3271 27.8613 17.708C28.1895 19.0752 28.3535 20.6406 28.3535 22.4043ZM21.9551 28.5156V21.5635C21.9551 20.5381 21.8936 19.6494 21.7705 18.8975C21.6611 18.1318 21.4971 17.4824 21.2783 16.9492C21.0732 16.416 20.8135 15.9854 20.499 15.6572C20.1846 15.3291 19.8223 15.0898 19.4121 14.9395C19.0156 14.7754 18.5781 14.6934 18.0996 14.6934C17.498 14.6934 16.958 14.8164 16.4795 15.0625C16.001 15.3086 15.5977 15.6982 15.2695 16.2314C14.9414 16.751 14.6885 17.4551 14.5107 18.3438C14.3467 19.2188 14.2646 20.292 14.2646 21.5635V28.5156C14.2646 29.541 14.3193 30.4365 14.4287 31.2021C14.5518 31.9678 14.7158 32.624 14.9209 33.1709C15.1396 33.7041 15.4062 34.1416 15.7207 34.4834C16.0352 34.8115 16.3975 35.0508 16.8076 35.2012C17.2178 35.3516 17.6621 35.4268 18.1406 35.4268C18.7422 35.4268 19.2754 35.3105 19.7402 35.0781C20.2051 34.832 20.6016 34.4424 20.9297 33.9092C21.2715 33.3623 21.5244 32.6445 21.6885 31.7559C21.8662 30.8672 21.9551 29.7871 21.9551 28.5156ZM37.9102 26.5469L32.8242 25.3369L34.5674 10.1406H51.6709V15.2061H39.8174L39.0996 21.502C39.4688 21.2832 40.0498 21.0439 40.8428 20.7842C41.6357 20.5107 42.5244 20.374 43.5088 20.374C44.9717 20.374 46.2705 20.5996 47.4053 21.0508C48.54 21.502 49.4971 22.1582 50.2764 23.0195C51.0693 23.8672 51.6641 24.9131 52.0605 26.1572C52.4707 27.4014 52.6758 28.8164 52.6758 30.4023C52.6758 31.7148 52.4707 32.9727 52.0605 34.1758C51.6504 35.3652 51.0215 36.4316 50.1738 37.375C49.3398 38.3047 48.2803 39.043 46.9951 39.5898C45.71 40.1367 44.1992 40.4102 42.4629 40.4102C41.1504 40.4102 39.8789 40.2119 38.6484 39.8154C37.418 39.4189 36.3105 38.8447 35.3262 38.0928C34.3555 37.3271 33.583 36.3975 33.0088 35.3037C32.4482 34.21 32.1611 32.9795 32.1475 31.6123H38.5459C38.6143 32.4053 38.8125 33.0889 39.1406 33.6631C39.4688 34.2236 39.9131 34.6611 40.4736 34.9756C41.0342 35.2764 41.6836 35.4268 42.4219 35.4268C43.1328 35.4268 43.7344 35.29 44.2266 35.0166C44.7188 34.7295 45.1084 34.3398 45.3955 33.8477C45.6963 33.3555 45.915 32.7812 46.0518 32.125C46.1885 31.4688 46.2568 30.7646 46.2568 30.0127C46.2568 29.2334 46.168 28.5361 45.9902 27.9209C45.8125 27.292 45.5391 26.7588 45.1699 26.3213C44.8008 25.8701 44.3291 25.5283 43.7549 25.2959C43.1943 25.0498 42.5176 24.9268 41.7246 24.9268C40.6855 24.9268 39.8721 25.0977 39.2842 25.4395C38.6963 25.7812 38.2383 26.1504 37.9102 26.5469Z" fill="#AFB8B3"/>
<path d="M22.3535 18.4043V23.7158C22.3535 25.9033 22.1074 27.7969 21.6152 29.3965C21.1367 30.9961 20.4395 32.3154 19.5234 33.3545C18.6211 34.3936 17.541 35.166 16.2832 35.6719C15.0391 36.1641 13.6582 36.4102 12.1406 36.4102C10.9238 36.4102 9.78906 36.2529 8.73633 35.9385C7.68359 35.624 6.7334 35.1387 5.88574 34.4824C5.05176 33.8125 4.33398 32.9785 3.73242 31.9805C3.13086 30.9824 2.66602 29.793 2.33789 28.4121C2.02344 27.0312 1.86621 25.4658 1.86621 23.7158V18.4043C1.86621 16.1895 2.10547 14.2891 2.58398 12.7031C3.07617 11.1172 3.78027 9.80469 4.69629 8.76562C5.6123 7.72656 6.69238 6.96094 7.93652 6.46875C9.19434 5.97656 10.582 5.73047 12.0996 5.73047C13.3164 5.73047 14.4443 5.8877 15.4834 6.20215C16.5361 6.5166 17.4863 7.00195 18.334 7.6582C19.1816 8.31445 19.8994 9.1416 20.4873 10.1396C21.0889 11.1377 21.5469 12.3271 21.8613 13.708C22.1895 15.0752 22.3535 16.6406 22.3535 18.4043ZM15.9551 24.5156V17.5635C15.9551 16.5381 15.8936 15.6494 15.7705 14.8975C15.6611 14.1318 15.4971 13.4824 15.2783 12.9492C15.0732 12.416 14.8135 11.9854 14.499 11.6572C14.1846 11.3291 13.8223 11.0898 13.4121 10.9395C13.0156 10.7754 12.5781 10.6934 12.0996 10.6934C11.498 10.6934 10.958 10.8164 10.4795 11.0625C10.001 11.3086 9.59766 11.6982 9.26953 12.2314C8.94141 12.751 8.68848 13.4551 8.51074 14.3438C8.34668 15.2188 8.26465 16.292 8.26465 17.5635V24.5156C8.26465 25.541 8.31934 26.4365 8.42871 27.2021C8.55176 27.9678 8.71582 28.624 8.9209 29.1709C9.13965 29.7041 9.40625 30.1416 9.7207 30.4834C10.0352 30.8115 10.3975 31.0508 10.8076 31.2012C11.2178 31.3516 11.6621 31.4268 12.1406 31.4268C12.7422 31.4268 13.2754 31.3105 13.7402 31.0781C14.2051 30.832 14.6016 30.4424 14.9297 29.9092C15.2715 29.3623 15.5244 28.6445 15.6885 27.7559C15.8662 26.8672 15.9551 25.7871 15.9551 24.5156ZM31.9102 22.5469L26.8242 21.3369L28.5674 6.14062H45.6709V11.2061H33.8174L33.0996 17.502C33.4688 17.2832 34.0498 17.0439 34.8428 16.7842C35.6357 16.5107 36.5244 16.374 37.5088 16.374C38.9717 16.374 40.2705 16.5996 41.4053 17.0508C42.54 17.502 43.4971 18.1582 44.2764 19.0195C45.0693 19.8672 45.6641 20.9131 46.0605 22.1572C46.4707 23.4014 46.6758 24.8164 46.6758 26.4023C46.6758 27.7148 46.4707 28.9727 46.0605 30.1758C45.6504 31.3652 45.0215 32.4316 44.1738 33.375C43.3398 34.3047 42.2803 35.043 40.9951 35.5898C39.71 36.1367 38.1992 36.4102 36.4629 36.4102C35.1504 36.4102 33.8789 36.2119 32.6484 35.8154C31.418 35.4189 30.3105 34.8447 29.3262 34.0928C28.3555 33.3271 27.583 32.3975 27.0088 31.3037C26.4482 30.21 26.1611 28.9795 26.1475 27.6123H32.5459C32.6143 28.4053 32.8125 29.0889 33.1406 29.6631C33.4688 30.2236 33.9131 30.6611 34.4736 30.9756C35.0342 31.2764 35.6836 31.4268 36.4219 31.4268C37.1328 31.4268 37.7344 31.29 38.2266 31.0166C38.7188 30.7295 39.1084 30.3398 39.3955 29.8477C39.6963 29.3555 39.915 28.7812 40.0518 28.125C40.1885 27.4688 40.2568 26.7646 40.2568 26.0127C40.2568 25.2334 40.168 24.5361 39.9902 23.9209C39.8125 23.292 39.5391 22.7588 39.1699 22.3213C38.8008 21.8701 38.3291 21.5283 37.7549 21.2959C37.1943 21.0498 36.5176 20.9268 35.7246 20.9268C34.6855 20.9268 33.8721 21.0977 33.2842 21.4395C32.6963 21.7812 32.2383 22.1504 31.9102 22.5469Z" fill="#303D4E"/>
</svg>
