<svg width="55" height="48" viewBox="0 0 55 48" fill="none" xmlns="http://www.w3.org/2000/svg">
<path opacity="0.7" d="M28.3535 22.4043V27.7158C28.3535 29.9033 28.1074 31.7969 27.6152 33.3965C27.1367 34.9961 26.4395 36.3154 25.5234 37.3545C24.6211 38.3936 23.541 39.166 22.2832 39.6719C21.0391 40.1641 19.6582 40.4102 18.1406 40.4102C16.9238 40.4102 15.7891 40.2529 14.7363 39.9385C13.6836 39.624 12.7334 39.1387 11.8857 38.4824C11.0518 37.8125 10.334 36.9785 9.73242 35.9805C9.13086 34.9824 8.66602 33.793 8.33789 32.4121C8.02344 31.0312 7.86621 29.4658 7.86621 27.7158V22.4043C7.86621 20.1895 8.10547 18.2891 8.58398 16.7031C9.07617 15.1172 9.78027 13.8047 10.6963 12.7656C11.6123 11.7266 12.6924 10.9609 13.9365 10.4688C15.1943 9.97656 16.582 9.73047 18.0996 9.73047C19.3164 9.73047 20.4443 9.8877 21.4834 10.2021C22.5361 10.5166 23.4863 11.002 24.334 11.6582C25.1816 12.3145 25.8994 13.1416 26.4873 14.1396C27.0889 15.1377 27.5469 16.3271 27.8613 17.708C28.1895 19.0752 28.3535 20.6406 28.3535 22.4043ZM21.9551 28.5156V21.5635C21.9551 20.5381 21.8936 19.6494 21.7705 18.8975C21.6611 18.1318 21.4971 17.4824 21.2783 16.9492C21.0732 16.416 20.8135 15.9854 20.499 15.6572C20.1846 15.3291 19.8223 15.0898 19.4121 14.9395C19.0156 14.7754 18.5781 14.6934 18.0996 14.6934C17.498 14.6934 16.958 14.8164 16.4795 15.0625C16.001 15.3086 15.5977 15.6982 15.2695 16.2314C14.9414 16.751 14.6885 17.4551 14.5107 18.3438C14.3467 19.2188 14.2646 20.292 14.2646 21.5635V28.5156C14.2646 29.541 14.3193 30.4365 14.4287 31.2021C14.5518 31.9678 14.7158 32.624 14.9209 33.1709C15.1396 33.7041 15.4062 34.1416 15.7207 34.4834C16.0352 34.8115 16.3975 35.0508 16.8076 35.2012C17.2178 35.3516 17.6621 35.4268 18.1406 35.4268C18.7422 35.4268 19.2754 35.3105 19.7402 35.0781C20.2051 34.832 20.6016 34.4424 20.9297 33.9092C21.2715 33.3623 21.5244 32.6445 21.6885 31.7559C21.8662 30.8672 21.9551 29.7871 21.9551 28.5156ZM47.5898 9.77148H48.5742V14.8574H48.2051C46.7695 14.8574 45.457 15.0625 44.2676 15.4727C43.0918 15.8828 42.0732 16.4912 41.2119 17.2979C40.3506 18.0908 39.6875 19.0752 39.2227 20.251C38.7715 21.4131 38.5459 22.7529 38.5459 24.2705V29.3564C38.5459 30.3818 38.6348 31.2773 38.8125 32.043C39.0039 32.7949 39.2773 33.4238 39.6328 33.9297C40.002 34.4219 40.4463 34.7979 40.9658 35.0576C41.4854 35.3037 42.0732 35.4268 42.7295 35.4268C43.3174 35.4268 43.8574 35.2969 44.3496 35.0371C44.8418 34.7773 45.2656 34.4082 45.6211 33.9297C45.9766 33.4512 46.25 32.8975 46.4414 32.2686C46.6328 31.626 46.7285 30.9287 46.7285 30.1768C46.7285 29.3838 46.626 28.666 46.4209 28.0234C46.2295 27.3672 45.9492 26.8066 45.5801 26.3418C45.2246 25.877 44.7871 25.5215 44.2676 25.2754C43.748 25.0156 43.1738 24.8857 42.5449 24.8857C41.6426 24.8857 40.8633 25.0908 40.207 25.501C39.5508 25.9111 39.0449 26.4375 38.6895 27.0801C38.334 27.7227 38.1494 28.3789 38.1357 29.0488L36.4336 27.6338C36.4336 26.7041 36.6182 25.7881 36.9873 24.8857C37.3701 23.9697 37.9102 23.1426 38.6074 22.4043C39.3047 21.6523 40.1592 21.0576 41.1709 20.6201C42.1963 20.1689 43.3652 19.9434 44.6777 19.9434C46.0586 19.9434 47.2754 20.21 48.3281 20.7432C49.3809 21.2627 50.2627 21.9873 50.9736 22.917C51.6982 23.8467 52.2383 24.9336 52.5938 26.1777C52.9629 27.4082 53.1475 28.7275 53.1475 30.1357C53.1475 31.585 52.8945 32.9385 52.3887 34.1963C51.8965 35.4404 51.1992 36.5273 50.2969 37.457C49.3945 38.3867 48.3145 39.1113 47.0566 39.6309C45.8125 40.1504 44.4248 40.4102 42.8936 40.4102C41.3076 40.4102 39.8584 40.1299 38.5459 39.5693C37.2471 39.0088 36.1123 38.209 35.1416 37.1699C34.1846 36.1172 33.4395 34.8594 32.9062 33.3965C32.3867 31.9336 32.127 30.293 32.127 28.4746V26.0752C32.127 23.5869 32.5098 21.3447 33.2754 19.3486C34.0547 17.3525 35.1348 15.6436 36.5156 14.2217C37.9102 12.7861 39.5508 11.6855 41.4375 10.9199C43.3242 10.1543 45.375 9.77148 47.5898 9.77148Z" fill="#AFB8B3"/>
<path d="M22.3535 18.4043V23.7158C22.3535 25.9033 22.1074 27.7969 21.6152 29.3965C21.1367 30.9961 20.4395 32.3154 19.5234 33.3545C18.6211 34.3936 17.541 35.166 16.2832 35.6719C15.0391 36.1641 13.6582 36.4102 12.1406 36.4102C10.9238 36.4102 9.78906 36.2529 8.73633 35.9385C7.68359 35.624 6.7334 35.1387 5.88574 34.4824C5.05176 33.8125 4.33398 32.9785 3.73242 31.9805C3.13086 30.9824 2.66602 29.793 2.33789 28.4121C2.02344 27.0312 1.86621 25.4658 1.86621 23.7158V18.4043C1.86621 16.1895 2.10547 14.2891 2.58398 12.7031C3.07617 11.1172 3.78027 9.80469 4.69629 8.76562C5.6123 7.72656 6.69238 6.96094 7.93652 6.46875C9.19434 5.97656 10.582 5.73047 12.0996 5.73047C13.3164 5.73047 14.4443 5.8877 15.4834 6.20215C16.5361 6.5166 17.4863 7.00195 18.334 7.6582C19.1816 8.31445 19.8994 9.1416 20.4873 10.1396C21.0889 11.1377 21.5469 12.3271 21.8613 13.708C22.1895 15.0752 22.3535 16.6406 22.3535 18.4043ZM15.9551 24.5156V17.5635C15.9551 16.5381 15.8936 15.6494 15.7705 14.8975C15.6611 14.1318 15.4971 13.4824 15.2783 12.9492C15.0732 12.416 14.8135 11.9854 14.499 11.6572C14.1846 11.3291 13.8223 11.0898 13.4121 10.9395C13.0156 10.7754 12.5781 10.6934 12.0996 10.6934C11.498 10.6934 10.958 10.8164 10.4795 11.0625C10.001 11.3086 9.59766 11.6982 9.26953 12.2314C8.94141 12.751 8.68848 13.4551 8.51074 14.3438C8.34668 15.2188 8.26465 16.292 8.26465 17.5635V24.5156C8.26465 25.541 8.31934 26.4365 8.42871 27.2021C8.55176 27.9678 8.71582 28.624 8.9209 29.1709C9.13965 29.7041 9.40625 30.1416 9.7207 30.4834C10.0352 30.8115 10.3975 31.0508 10.8076 31.2012C11.2178 31.3516 11.6621 31.4268 12.1406 31.4268C12.7422 31.4268 13.2754 31.3105 13.7402 31.0781C14.2051 30.832 14.6016 30.4424 14.9297 29.9092C15.2715 29.3623 15.5244 28.6445 15.6885 27.7559C15.8662 26.8672 15.9551 25.7871 15.9551 24.5156ZM41.5898 5.77148H42.5742V10.8574H42.2051C40.7695 10.8574 39.457 11.0625 38.2676 11.4727C37.0918 11.8828 36.0732 12.4912 35.2119 13.2979C34.3506 14.0908 33.6875 15.0752 33.2227 16.251C32.7715 17.4131 32.5459 18.7529 32.5459 20.2705V25.3564C32.5459 26.3818 32.6348 27.2773 32.8125 28.043C33.0039 28.7949 33.2773 29.4238 33.6328 29.9297C34.002 30.4219 34.4463 30.7979 34.9658 31.0576C35.4854 31.3037 36.0732 31.4268 36.7295 31.4268C37.3174 31.4268 37.8574 31.2969 38.3496 31.0371C38.8418 30.7773 39.2656 30.4082 39.6211 29.9297C39.9766 29.4512 40.25 28.8975 40.4414 28.2686C40.6328 27.626 40.7285 26.9287 40.7285 26.1768C40.7285 25.3838 40.626 24.666 40.4209 24.0234C40.2295 23.3672 39.9492 22.8066 39.5801 22.3418C39.2246 21.877 38.7871 21.5215 38.2676 21.2754C37.748 21.0156 37.1738 20.8857 36.5449 20.8857C35.6426 20.8857 34.8633 21.0908 34.207 21.501C33.5508 21.9111 33.0449 22.4375 32.6895 23.0801C32.334 23.7227 32.1494 24.3789 32.1357 25.0488L30.4336 23.6338C30.4336 22.7041 30.6182 21.7881 30.9873 20.8857C31.3701 19.9697 31.9102 19.1426 32.6074 18.4043C33.3047 17.6523 34.1592 17.0576 35.1709 16.6201C36.1963 16.1689 37.3652 15.9434 38.6777 15.9434C40.0586 15.9434 41.2754 16.21 42.3281 16.7432C43.3809 17.2627 44.2627 17.9873 44.9736 18.917C45.6982 19.8467 46.2383 20.9336 46.5938 22.1777C46.9629 23.4082 47.1475 24.7275 47.1475 26.1357C47.1475 27.585 46.8945 28.9385 46.3887 30.1963C45.8965 31.4404 45.1992 32.5273 44.2969 33.457C43.3945 34.3867 42.3145 35.1113 41.0566 35.6309C39.8125 36.1504 38.4248 36.4102 36.8936 36.4102C35.3076 36.4102 33.8584 36.1299 32.5459 35.5693C31.2471 35.0088 30.1123 34.209 29.1416 33.1699C28.1846 32.1172 27.4395 30.8594 26.9062 29.3965C26.3867 27.9336 26.127 26.293 26.127 24.4746V22.0752C26.127 19.5869 26.5098 17.3447 27.2754 15.3486C28.0547 13.3525 29.1348 11.6436 30.5156 10.2217C31.9102 8.78613 33.5508 7.68555 35.4375 6.91992C37.3242 6.1543 39.375 5.77148 41.5898 5.77148Z" fill="#303D4E"/>
</svg>
